EESchema Schematic File Version 4
EELAYER 30 0
EELAYER END
$Descr A4 11693 8268
encoding utf-8
Sheet 1 1
Title ""
Date ""
Rev ""
Comp ""
Comment1 ""
Comment2 ""
Comment3 ""
Comment4 ""
$EndDescr
$Comp
L MCU_Microchip_ATtiny:ATtiny412-SS U1
U 1 1 5E61071D
P 4720 3510
F 0 "U1" H 4191 3556 50  0000 R CNN
F 1 "ATtiny412-SS" H 4191 3465 50  0000 R CNN
F 2 "Package_SO:SOIC-8_3.9x4.9mm_P1.27mm" H 4720 3510 50  0001 C CIN
F 3 "http://ww1.microchip.com/downloads/en/DeviceDoc/40001911A.pdf" H 4720 3510 50  0001 C CNN
	1    4720 3510
	1    0    0    -1  
$EndComp
$Comp
L power:GND #PWR0102
U 1 1 5E61845C
P 3310 4500
F 0 "#PWR0102" H 3310 4250 50  0001 C CNN
F 1 "GND" H 3315 4327 50  0000 C CNN
F 2 "" H 3310 4500 50  0001 C CNN
F 3 "" H 3310 4500 50  0001 C CNN
	1    3310 4500
	1    0    0    -1  
$EndComp
$Comp
L Connector:Conn_01x06_Male J2
U 1 1 5E61971C
P 7090 3350
F 0 "J2" H 7062 3232 50  0000 R CNN
F 1 "Conn_01x06_Male" H 7062 3323 50  0000 R CNN
F 2 "custom-footprints:FTDI_Header_1x06_P2.54mm_Horizontal" H 7090 3350 50  0001 C CNN
F 3 "~" H 7090 3350 50  0001 C CNN
	1    7090 3350
	-1   0    0    1   
$EndComp
Wire Wire Line
	3310 3650 3310 4110
Wire Wire Line
	3310 4110 4720 4110
Wire Wire Line
	3310 4500 3310 4360
Connection ~ 3310 4110
Wire Wire Line
	3310 3350 3310 2910
Wire Wire Line
	3310 2910 4720 2910
Connection ~ 3310 2910
$Comp
L Device:LED D2
U 1 1 5E62353B
P 4310 5365
F 0 "D2" H 4303 5110 50  0000 C CNN
F 1 "LED" H 4303 5201 50  0000 C CNN
F 2 "LED_SMD:LED_1206_3216Metric_Pad1.42x1.75mm_HandSolder" H 4310 5365 50  0001 C CNN
F 3 "~" H 4310 5365 50  0001 C CNN
	1    4310 5365
	-1   0    0    1   
$EndComp
Wire Wire Line
	4460 5365 4740 5365
Wire Wire Line
	4160 5365 3830 5365
Text Label 3830 5365 0    50   ~ 0
LED
$Comp
L Switch:SW_Push SW1
U 1 1 5E62702A
P 6805 5380
F 0 "SW1" H 6805 5665 50  0000 C CNN
F 1 "SW_Push" H 6805 5574 50  0000 C CNN
F 2 "custom-footprints:TACTILE_SW_B3S" H 6805 5580 50  0001 C CNN
F 3 "~" H 6805 5580 50  0001 C CNN
	1    6805 5380
	1    0    0    -1  
$EndComp
$Comp
L Connector:Conn_01x02_Male J1
U 1 1 5E62861A
P 7080 4080
F 0 "J1" H 7052 3962 50  0000 R CNN
F 1 "Conn_01x02_Male" H 7052 4053 50  0000 R CNN
F 2 "custom-footprints:UPDI_Header_1x02_P2.54mm_Horizontal" H 7080 4080 50  0001 C CNN
F 3 "~" H 7080 4080 50  0001 C CNN
	1    7080 4080
	-1   0    0    1   
$EndComp
Wire Wire Line
	7005 5380 7575 5380
Text Label 5885 5380 0    50   ~ 0
BUTTON
Text Label 7575 5380 2    50   ~ 0
GND
Wire Wire Line
	5040 5365 5530 5365
Text Label 5530 5365 2    50   ~ 0
GND
Wire Wire Line
	6890 3050 6390 3050
Text Label 6390 3050 0    50   ~ 0
GND
$Comp
L Device:C C1
U 1 1 5E61216D
P 3310 3500
F 0 "C1" H 3425 3546 50  0000 L CNN
F 1 "1uF" H 3425 3455 50  0000 L CNN
F 2 "Capacitor_SMD:C_1206_3216Metric_Pad1.42x1.75mm_HandSolder" H 3348 3350 50  0001 C CNN
F 3 "~" H 3310 3500 50  0001 C CNN
	1    3310 3500
	1    0    0    -1  
$EndComp
$Comp
L Device:LED D1
U 1 1 5E62EFC9
P 4330 4865
F 0 "D1" H 4323 4610 50  0000 C CNN
F 1 "PWR_LED" H 4323 4701 50  0000 C CNN
F 2 "LED_SMD:LED_1206_3216Metric_Pad1.42x1.75mm_HandSolder" H 4330 4865 50  0001 C CNN
F 3 "~" H 4330 4865 50  0001 C CNN
	1    4330 4865
	-1   0    0    1   
$EndComp
Wire Wire Line
	4480 4865 4760 4865
Wire Wire Line
	4180 4865 3850 4865
Text Label 3850 4865 0    50   ~ 0
5V
Wire Wire Line
	5060 4865 5550 4865
Text Label 5550 4865 2    50   ~ 0
GND
Wire Wire Line
	5320 3210 5740 3210
Wire Wire Line
	5320 3310 5740 3310
Wire Wire Line
	5320 3410 5740 3410
Wire Wire Line
	5320 3510 5740 3510
Wire Wire Line
	5320 3610 5740 3610
Text Label 5740 3210 2    50   ~ 0
UPDI
Text Label 5740 3310 2    50   ~ 0
RX
Text Label 5740 3410 2    50   ~ 0
TX
Text Label 5740 3510 2    50   ~ 0
LED
Wire Wire Line
	6890 3250 6390 3250
Wire Wire Line
	6890 3350 6390 3350
Wire Wire Line
	6890 3450 6390 3450
Text Label 6390 3250 0    50   ~ 0
5V
Text Label 6390 3450 0    50   ~ 0
RX
Text Label 6390 3350 0    50   ~ 0
TX
Wire Wire Line
	6880 3980 6530 3980
Wire Wire Line
	6880 4080 6530 4080
Text Label 6530 4080 0    50   ~ 0
GND
Text Label 6530 3980 0    50   ~ 0
UPDI
NoConn ~ 6890 3550
NoConn ~ 6890 3150
$Comp
L power:PWR_FLAG #FLG0101
U 1 1 5E63B72D
P 3310 2755
F 0 "#FLG0101" H 3310 2830 50  0001 C CNN
F 1 "PWR_FLAG" V 3310 2883 50  0000 L CNN
F 2 "" H 3310 2755 50  0001 C CNN
F 3 "~" H 3310 2755 50  0001 C CNN
	1    3310 2755
	0    1    1    0   
$EndComp
$Comp
L power:PWR_FLAG #FLG0102
U 1 1 5E63BC16
P 3310 4360
F 0 "#FLG0102" H 3310 4435 50  0001 C CNN
F 1 "PWR_FLAG" V 3310 4488 50  0000 L CNN
F 2 "" H 3310 4360 50  0001 C CNN
F 3 "~" H 3310 4360 50  0001 C CNN
	1    3310 4360
	0    1    1    0   
$EndComp
Connection ~ 3310 4360
Wire Wire Line
	3310 4360 3310 4110
Text Label 5740 3610 2    50   ~ 0
BUTTON
NoConn ~ 5320 3710
$Comp
L Device:R R3
U 1 1 5E6901E4
P 6385 5020
F 0 "R3" H 6455 5066 50  0000 L CNN
F 1 "10K" H 6455 4975 50  0000 L CNN
F 2 "Resistor_SMD:R_1206_3216Metric_Pad1.42x1.75mm_HandSolder" V 6315 5020 50  0001 C CNN
F 3 "~" H 6385 5020 50  0001 C CNN
	1    6385 5020
	1    0    0    -1  
$EndComp
Wire Wire Line
	5885 5380 6385 5380
Wire Wire Line
	6385 5170 6385 5380
Connection ~ 6385 5380
Wire Wire Line
	6385 5380 6605 5380
Wire Wire Line
	6385 4870 6385 4460
Text Label 6385 4460 0    50   ~ 0
5V
$Comp
L Device:R R2
U 1 1 5E613E4F
P 4890 5365
F 0 "R2" V 4683 5365 50  0000 C CNN
F 1 "499" V 4774 5365 50  0000 C CNN
F 2 "Resistor_SMD:R_1206_3216Metric_Pad1.42x1.75mm_HandSolder" V 4820 5365 50  0001 C CNN
F 3 "~" H 4890 5365 50  0001 C CNN
	1    4890 5365
	0    1    1    0   
$EndComp
$Comp
L Device:R R1
U 1 1 5E62EFC3
P 4910 4865
F 0 "R1" V 4703 4865 50  0000 C CNN
F 1 "499" V 4794 4865 50  0000 C CNN
F 2 "Resistor_SMD:R_1206_3216Metric_Pad1.42x1.75mm_HandSolder" V 4840 4865 50  0001 C CNN
F 3 "~" H 4910 4865 50  0001 C CNN
	1    4910 4865
	0    1    1    0   
$EndComp
Connection ~ 3310 2755
Wire Wire Line
	3310 2755 3310 2910
Wire Wire Line
	3310 2500 3310 2755
Text Label 3310 2500 0    50   ~ 0
5V
$EndSCHEMATC
